(export (version D)
  (design
    (source /home/fido/code/transcriba/pcb_files/pedal_transcriba_brd.sch)
    (date "Thu 27 Aug 2020 12:13:53 AM EDT")
    (tool "Eeschema 5.1.6+dfsg1-1~bpo10+1")
    (sheet (number 1) (name /) (tstamps /)
      (title_block
        (title "Pedal Transcriba v1.0")
        (company "CNAM / IFRIS")
        (rev r1)
        (date 2017-07-23)
        (source pedal_transcriba_brd.sch)
        (comment (number 1) (value "Licensed with CERN OHL 1.2 by 'unixjazz'"))
        (comment (number 2) (value ""))
        (comment (number 3) (value ""))
        (comment (number 4) (value "")))))
  (components
    (comp (ref CON1)
      (value "ICSP / SPI")
      (footprint Pin_Headers:Pin_Header_Straight_2x03)
      (libsource (lib pedal_transcriba_brd-rescue) (part CONN_02X03) (description ""))
      (sheetpath (names /) (tstamps /))
      (tstamp 594EEA9B))
    (comp (ref U1)
      (value ATMEGA32U4-A)
      (footprint Housings_QFP:TQFP-44_10x10mm_Pitch0.8mm)
      (libsource (lib pedal_transcriba_brd-rescue) (part ATMEGA32U4-A) (description ""))
      (sheetpath (names /) (tstamps /))
      (tstamp 594EEBA4))
    (comp (ref C1)
      (value 22pf)
      (footprint Capacitor_SMD:C_0603_1608Metric_Pad1.05x0.95mm_HandSolder)
      (libsource (lib pedal_transcriba_brd-rescue) (part C) (description ""))
      (sheetpath (names /) (tstamps /))
      (tstamp 594EF61E))
    (comp (ref C2)
      (value 22pf)
      (footprint Capacitor_SMD:C_0603_1608Metric_Pad1.05x0.95mm_HandSolder)
      (libsource (lib pedal_transcriba_brd-rescue) (part C) (description ""))
      (sheetpath (names /) (tstamps /))
      (tstamp 594EF68B))
    (comp (ref R3)
      (value 22)
      (footprint Resistor_SMD:R_0603_1608Metric_Pad1.05x0.95mm_HandSolder)
      (libsource (lib pedal_transcriba_brd-rescue) (part R) (description ""))
      (sheetpath (names /) (tstamps /))
      (tstamp 594FF2AF))
    (comp (ref R2)
      (value 22)
      (footprint Resistor_SMD:R_0603_1608Metric_Pad1.05x0.95mm_HandSolder)
      (libsource (lib pedal_transcriba_brd-rescue) (part R) (description ""))
      (sheetpath (names /) (tstamps /))
      (tstamp 594FF748))
    (comp (ref F1)
      (value 500mA)
      (footprint Fuse_Holders_and_Fuses:Fuse_SMD1206_Reflow)
      (libsource (lib pedal_transcriba_brd-rescue) (part Fuse) (description ""))
      (sheetpath (names /) (tstamps /))
      (tstamp 59501163))
    (comp (ref C3)
      (value 100n)
      (footprint Capacitor_SMD:C_0603_1608Metric_Pad1.05x0.95mm_HandSolder)
      (libsource (lib pedal_transcriba_brd-rescue) (part C) (description ""))
      (sheetpath (names /) (tstamps /))
      (tstamp 59501527))
    (comp (ref C4)
      (value 1uF)
      (footprint Capacitor_SMD:C_0603_1608Metric_Pad1.05x0.95mm_HandSolder)
      (libsource (lib pedal_transcriba_brd-rescue) (part C) (description ""))
      (sheetpath (names /) (tstamps /))
      (tstamp 595015C0))
    (comp (ref D1)
      (value PWD)
      (footprint LEDs:LED_0603)
      (libsource (lib pedal_transcriba_brd-rescue) (part LED) (description ""))
      (sheetpath (names /) (tstamps /))
      (tstamp 59506462))
    (comp (ref D2)
      (value LED)
      (footprint LEDs:LED_0603)
      (libsource (lib pedal_transcriba_brd-rescue) (part LED) (description ""))
      (sheetpath (names /) (tstamps /))
      (tstamp 59507165))
    (comp (ref R10)
      (value 1K)
      (footprint Resistor_SMD:R_0603_1608Metric_Pad1.05x0.95mm_HandSolder)
      (libsource (lib pedal_transcriba_brd-rescue) (part R) (description ""))
      (sheetpath (names /) (tstamps /))
      (tstamp 595072D4))
    (comp (ref R11)
      (value 1K)
      (footprint Resistor_SMD:R_0603_1608Metric_Pad1.05x0.95mm_HandSolder)
      (libsource (lib pedal_transcriba_brd-rescue) (part R) (description ""))
      (sheetpath (names /) (tstamps /))
      (tstamp 5950760B))
    (comp (ref R1)
      (value 10K)
      (footprint Resistor_SMD:R_0603_1608Metric_Pad1.05x0.95mm_HandSolder)
      (libsource (lib pedal_transcriba_brd-rescue) (part R) (description ""))
      (sheetpath (names /) (tstamps /))
      (tstamp 5950E8F2))
    (comp (ref R4)
      (value 1M)
      (footprint Resistor_SMD:R_0603_1608Metric_Pad1.05x0.95mm_HandSolder)
      (libsource (lib pedal_transcriba_brd-rescue) (part R) (description ""))
      (sheetpath (names /) (tstamps /))
      (tstamp 59614B59))
    (comp (ref R5)
      (value 1M)
      (footprint Resistor_SMD:R_0603_1608Metric_Pad1.05x0.95mm_HandSolder)
      (libsource (lib pedal_transcriba_brd-rescue) (part R) (description ""))
      (sheetpath (names /) (tstamps /))
      (tstamp 59614C9B))
    (comp (ref R6)
      (value 1M)
      (footprint Resistor_SMD:R_0603_1608Metric_Pad1.05x0.95mm_HandSolder)
      (libsource (lib pedal_transcriba_brd-rescue) (part R) (description ""))
      (sheetpath (names /) (tstamps /))
      (tstamp 59615066))
    (comp (ref R7)
      (value 1M)
      (footprint Resistor_SMD:R_0603_1608Metric_Pad1.05x0.95mm_HandSolder)
      (libsource (lib pedal_transcriba_brd-rescue) (part R) (description ""))
      (sheetpath (names /) (tstamps /))
      (tstamp 59615164))
    (comp (ref R8)
      (value 1M)
      (footprint Resistor_SMD:R_0603_1608Metric_Pad1.05x0.95mm_HandSolder)
      (libsource (lib pedal_transcriba_brd-rescue) (part R) (description ""))
      (sheetpath (names /) (tstamps /))
      (tstamp 596151B1))
    (comp (ref R9)
      (value 1M)
      (footprint Resistor_SMD:R_0603_1608Metric_Pad1.05x0.95mm_HandSolder)
      (libsource (lib pedal_transcriba_brd-rescue) (part R) (description ""))
      (sheetpath (names /) (tstamps /))
      (tstamp 59615202))
    (comp (ref P2)
      (value CONN_01X04)
      (footprint Pin_Headers:Pin_Header_Straight_1x04)
      (libsource (lib pedal_transcriba_brd-rescue) (part CONN_01X04) (description ""))
      (sheetpath (names /) (tstamps /))
      (tstamp 59619C14))
    (comp (ref P1)
      (value USB_A)
      (footprint Connectors:USB_Micro-B_10103594-0001LF)
      (libsource (lib pedal_transcriba_brd-rescue) (part USB_A) (description ""))
      (sheetpath (names /) (tstamps /))
      (tstamp 59633612))
    (comp (ref Y1)
      (value 16Mhz)
      (footprint Crystal:Crystal_SMD_0603-4Pin_6.0x3.5mm_HandSoldering)
      (libsource (lib pedal_transcriba_brd-rescue) (part Crystal_GND24) (description ""))
      (sheetpath (names /) (tstamps /))
      (tstamp 596238B8))
    (comp (ref CAP1)
      (value CAPSENSE_CIRCLE)
      (footprint Wickerlib:CAPSENSE-CIRCLE-D10MM-MOD)
      (libsource (lib pedal_transcriba_brd-rescue) (part CAPSENSE_CIRCLE) (description ""))
      (sheetpath (names /) (tstamps /))
      (tstamp 5975FB48))
    (comp (ref CAP2)
      (value CAPSENSE_CIRCLE)
      (footprint Wickerlib:CAPSENSE-CIRCLE-D10MM-MOD)
      (libsource (lib pedal_transcriba_brd-rescue) (part CAPSENSE_CIRCLE) (description ""))
      (sheetpath (names /) (tstamps /))
      (tstamp 5975FCCF))
    (comp (ref CAP3)
      (value CAPSENSE_CIRCLE)
      (footprint Wickerlib:CAPSENSE-CIRCLE-D10MM-MOD)
      (libsource (lib pedal_transcriba_brd-rescue) (part CAPSENSE_CIRCLE) (description ""))
      (sheetpath (names /) (tstamps /))
      (tstamp 597604D0))
    (comp (ref CAP4)
      (value CAPSENSE_CIRCLE)
      (footprint Wickerlib:CAPSENSE-CIRCLE-D10MM-MOD)
      (libsource (lib pedal_transcriba_brd-rescue) (part CAPSENSE_CIRCLE) (description ""))
      (sheetpath (names /) (tstamps /))
      (tstamp 59760579))
    (comp (ref CAP6)
      (value CAPSENSE_CIRCLE)
      (footprint Wickerlib:CAPSENSE-CIRCLE-D10MM-MOD)
      (libsource (lib pedal_transcriba_brd-rescue) (part CAPSENSE_CIRCLE) (description ""))
      (sheetpath (names /) (tstamps /))
      (tstamp 59760C45))
    (comp (ref CAP5)
      (value CAPSENSE_CIRCLE)
      (footprint Wickerlib:CAPSENSE-CIRCLE-D10MM-MOD)
      (libsource (lib pedal_transcriba_brd-rescue) (part CAPSENSE_CIRCLE) (description ""))
      (sheetpath (names /) (tstamps /))
      (tstamp 59760B4D)))
  (libparts
    (libpart (lib pedal_transcriba_brd-rescue) (part ATMEGA32U4-A)
      (footprints
        (fp TQFP44))
      (fields
        (field (name Reference) U)
        (field (name Value) ATMEGA32U4-A)
        (field (name Footprint) TQFP44))
      (pins
        (pin (num 1) (name "(INT6/AIN0)PE6") (type BiDi))
        (pin (num 2) (name UVCC) (type power_in))
        (pin (num 3) (name D-) (type BiDi))
        (pin (num 4) (name D+) (type BiDi))
        (pin (num 5) (name UGND) (type passive))
        (pin (num 6) (name UCAP) (type passive))
        (pin (num 7) (name VBUS) (type passive))
        (pin (num 8) (name "(SS/PCINT0)PB0") (type BiDi))
        (pin (num 9) (name "(SCLK/PCINT1)PB1") (type BiDi))
        (pin (num 10) (name "(PDI/MOSI/PCINT2)PB2") (type BiDi))
        (pin (num 11) (name "(PDO/MISO/PCINT3)PB3") (type BiDi))
        (pin (num 12) (name "(OC0A/OC1C/~RTS~/PCINT7)PB7") (type BiDi))
        (pin (num 13) (name ~RESET~) (type input))
        (pin (num 14) (name VCC) (type power_in))
        (pin (num 15) (name GND) (type power_in))
        (pin (num 16) (name XTAL2) (type output))
        (pin (num 17) (name XTAL1) (type input))
        (pin (num 18) (name "(OC0B/SCL/INT0)PD0") (type BiDi))
        (pin (num 19) (name "(SDA/INT1)PD1") (type BiDi))
        (pin (num 20) (name "(RXD/INT2)PD2") (type BiDi))
        (pin (num 21) (name "(TXD/INT3)PD3") (type BiDi))
        (pin (num 22) (name "(XCK1/~CTS~)PD5") (type BiDi))
        (pin (num 23) (name GND) (type power_in))
        (pin (num 24) (name AVCC) (type power_in))
        (pin (num 25) (name "(ICP2/ADC8)PD4") (type BiDi))
        (pin (num 26) (name "(T1/~OC4D~/ADC9)PD6") (type BiDi))
        (pin (num 27) (name "(T0/OC4D/ADC10)PD7") (type BiDi))
        (pin (num 28) (name "(ADC11/PCINT4)PB4") (type BiDi))
        (pin (num 29) (name "(ADC12/OC1A/~OC4B~/PCINT12)PB5") (type BiDi))
        (pin (num 30) (name "(ADC13/OC1B/OC4B/PCINT13)PB6") (type BiDi))
        (pin (num 31) (name "(OC3A/~OC4A~)PC6") (type BiDi))
        (pin (num 32) (name "(ICP3/CLK0/OC4A)PC7") (type BiDi))
        (pin (num 33) (name "(~HWB~)PE2") (type BiDi))
        (pin (num 34) (name VCC) (type power_in))
        (pin (num 35) (name GND) (type power_in))
        (pin (num 36) (name "(ADC7/TDI)PF7") (type BiDi))
        (pin (num 37) (name "(ADC6/TDO)PF6") (type BiDi))
        (pin (num 38) (name "(ADC5/TMS)PF5") (type BiDi))
        (pin (num 39) (name "(ADC4/TCK)PF4") (type BiDi))
        (pin (num 40) (name "(ADC1)PF1") (type BiDi))
        (pin (num 41) (name "(ADC0)PF0") (type BiDi))
        (pin (num 42) (name AREF) (type passive))
        (pin (num 43) (name GND) (type power_in))
        (pin (num 44) (name AVCC) (type power_in))))
    (libpart (lib pedal_transcriba_brd-rescue) (part C)
      (footprints
        (fp C?)
        (fp C_????_*)
        (fp C_????)
        (fp SMD*_c)
        (fp Capacitor*))
      (fields
        (field (name Reference) C)
        (field (name Value) C))
      (pins
        (pin (num 1) (name ~) (type passive))
        (pin (num 2) (name ~) (type passive))))
    (libpart (lib pedal_transcriba_brd-rescue) (part CAPSENSE_CIRCLE)
      (fields
        (field (name Reference) CAP)
        (field (name Value) CAPSENSE_CIRCLE)
        (field (name Footprint) Wickerlib:CAPSENSE-CIRCLE-D10MM))
      (pins
        (pin (num 1) (name BUTTON) (type BiDi))
        (pin (num 2) (name ~) (type input))))
    (libpart (lib pedal_transcriba_brd-rescue) (part CONN_01X04)
      (footprints
        (fp Pin_Header_Straight_1X04)
        (fp Pin_Header_Angled_1X04)
        (fp Socket_Strip_Straight_1X04)
        (fp Socket_Strip_Angled_1X04))
      (fields
        (field (name Reference) P)
        (field (name Value) CONN_01X04))
      (pins
        (pin (num 1) (name P1) (type passive))
        (pin (num 2) (name P2) (type passive))
        (pin (num 3) (name P3) (type passive))
        (pin (num 4) (name P4) (type passive))))
    (libpart (lib pedal_transcriba_brd-rescue) (part CONN_02X03)
      (footprints
        (fp Pin_Header_Straight_2X03)
        (fp Pin_Header_Angled_2X03)
        (fp Socket_Strip_Straight_2X03)
        (fp Socket_Strip_Angled_2X03))
      (fields
        (field (name Reference) P)
        (field (name Value) CONN_02X03))
      (pins
        (pin (num 1) (name P1) (type passive))
        (pin (num 2) (name P2) (type passive))
        (pin (num 3) (name P3) (type passive))
        (pin (num 4) (name P4) (type passive))
        (pin (num 5) (name P5) (type passive))
        (pin (num 6) (name P6) (type passive))))
    (libpart (lib pedal_transcriba_brd-rescue) (part Crystal_GND24)
      (footprints
        (fp Crystal*))
      (fields
        (field (name Reference) Y)
        (field (name Value) Crystal_GND24))
      (pins
        (pin (num 1) (name 1) (type passive))
        (pin (num 2) (name 2) (type passive))
        (pin (num 3) (name 3) (type passive))
        (pin (num 4) (name 4) (type passive))))
    (libpart (lib pedal_transcriba_brd-rescue) (part Fuse)
      (footprints
        (fp *Fuse*))
      (fields
        (field (name Reference) F)
        (field (name Value) Fuse))
      (pins
        (pin (num 1) (name ~) (type passive))
        (pin (num 2) (name ~) (type passive))))
    (libpart (lib pedal_transcriba_brd-rescue) (part LED)
      (footprints
        (fp LED*))
      (fields
        (field (name Reference) D)
        (field (name Value) LED))
      (pins
        (pin (num 1) (name K) (type passive))
        (pin (num 2) (name A) (type passive))))
    (libpart (lib pedal_transcriba_brd-rescue) (part R)
      (footprints
        (fp R_*)
        (fp Resistor_*))
      (fields
        (field (name Reference) R)
        (field (name Value) R))
      (pins
        (pin (num 1) (name ~) (type passive))
        (pin (num 2) (name ~) (type passive))))
    (libpart (lib pedal_transcriba_brd-rescue) (part USB_A)
      (footprints
        (fp USB*))
      (fields
        (field (name Reference) P)
        (field (name Value) USB_A))
      (pins
        (pin (num 1) (name VBUS) (type power_in))
        (pin (num 2) (name D-) (type passive))
        (pin (num 3) (name D+) (type passive))
        (pin (num 4) (name GND) (type power_in))
        (pin (num 5) (name shield) (type passive)))))
  (libraries
    (library (logical pedal_transcriba_brd-rescue)
      (uri /home/fido/code/transcriba/pcb_files/pedal_transcriba_brd-rescue.lib)))
  (nets
    (net (code 1) (name "Net-(C1-Pad1)")
      (node (ref U1) (pin 17))
      (node (ref C1) (pin 1))
      (node (ref Y1) (pin 1)))
    (net (code 2) (name "Net-(C2-Pad1)")
      (node (ref U1) (pin 16))
      (node (ref Y1) (pin 3))
      (node (ref C2) (pin 1)))
    (net (code 3) (name "Net-(CAP4-Pad2)")
      (node (ref CAP4) (pin 2))
      (node (ref R7) (pin 1)))
    (net (code 4) (name "Net-(CAP3-Pad2)")
      (node (ref CAP3) (pin 2))
      (node (ref R6) (pin 1)))
    (net (code 5) (name "Net-(D1-Pad1)")
      (node (ref R10) (pin 1))
      (node (ref D1) (pin 1)))
    (net (code 6) (name RESET)
      (node (ref CON1) (pin 5))
      (node (ref U1) (pin 13))
      (node (ref R1) (pin 2)))
    (net (code 7) (name "Net-(D2-Pad1)")
      (node (ref R11) (pin 1))
      (node (ref D2) (pin 1)))
    (net (code 8) (name "Net-(CAP2-Pad2)")
      (node (ref R5) (pin 2))
      (node (ref CAP2) (pin 2)))
    (net (code 9) (name "Net-(C3-Pad2)")
      (node (ref U1) (pin 42))
      (node (ref C3) (pin 2)))
    (net (code 10) (name "Net-(C4-Pad1)")
      (node (ref C4) (pin 1))
      (node (ref U1) (pin 6)))
    (net (code 11) (name GND)
      (node (ref R11) (pin 2))
      (node (ref C2) (pin 2))
      (node (ref C1) (pin 2))
      (node (ref R10) (pin 2))
      (node (ref U1) (pin 23))
      (node (ref U1) (pin 33))
      (node (ref U1) (pin 35))
      (node (ref U1) (pin 5))
      (node (ref CON1) (pin 6))
      (node (ref U1) (pin 15))
      (node (ref C4) (pin 2))
      (node (ref P2) (pin 4))
      (node (ref C3) (pin 1))
      (node (ref U1) (pin 43))
      (node (ref Y1) (pin 2))
      (node (ref Y1) (pin 4))
      (node (ref P1) (pin 4)))
    (net (code 12) (name "Net-(P1-Pad5)")
      (node (ref P1) (pin 5)))
    (net (code 13) (name "Net-(CAP1-Pad2)")
      (node (ref CAP1) (pin 2))
      (node (ref R4) (pin 1)))
    (net (code 14) (name "Net-(CAP6-Pad2)")
      (node (ref CAP6) (pin 2))
      (node (ref R9) (pin 1)))
    (net (code 15) (name "Net-(CAP5-Pad2)")
      (node (ref R8) (pin 1))
      (node (ref CAP5) (pin 2)))
    (net (code 16) (name D7)
      (node (ref U1) (pin 1))
      (node (ref R6) (pin 2)))
    (net (code 17) (name "Net-(P1-Pad3)")
      (node (ref P1) (pin 3))
      (node (ref R2) (pin 2)))
    (net (code 18) (name D6)
      (node (ref R5) (pin 1))
      (node (ref U1) (pin 27)))
    (net (code 19) (name D5)
      (node (ref R4) (pin 2))
      (node (ref U1) (pin 31)))
    (net (code 20) (name VCC)
      (node (ref D1) (pin 2))
      (node (ref U1) (pin 14))
      (node (ref U1) (pin 2))
      (node (ref CON1) (pin 2))
      (node (ref U1) (pin 34))
      (node (ref F1) (pin 1))
      (node (ref P2) (pin 3))
      (node (ref R1) (pin 1))
      (node (ref U1) (pin 7))
      (node (ref U1) (pin 44))
      (node (ref U1) (pin 24)))
    (net (code 21) (name D4)
      (node (ref CAP4) (pin 1))
      (node (ref CAP3) (pin 1))
      (node (ref U1) (pin 25))
      (node (ref CAP2) (pin 1))
      (node (ref CAP1) (pin 1))
      (node (ref CAP5) (pin 1))
      (node (ref CAP6) (pin 1)))
    (net (code 22) (name "Net-(P1-Pad2)")
      (node (ref P1) (pin 2))
      (node (ref R3) (pin 2)))
    (net (code 23) (name "Net-(U1-Pad8)")
      (node (ref U1) (pin 8)))
    (net (code 24) (name "Net-(U1-Pad41)")
      (node (ref U1) (pin 41)))
    (net (code 25) (name "Net-(U1-Pad40)")
      (node (ref U1) (pin 40)))
    (net (code 26) (name "Net-(R2-Pad1)")
      (node (ref R2) (pin 1))
      (node (ref U1) (pin 4)))
    (net (code 27) (name "Net-(U1-Pad39)")
      (node (ref U1) (pin 39)))
    (net (code 28) (name "Net-(U1-Pad38)")
      (node (ref U1) (pin 38)))
    (net (code 29) (name "Net-(U1-Pad37)")
      (node (ref U1) (pin 37)))
    (net (code 30) (name "Net-(F1-Pad2)")
      (node (ref P1) (pin 1))
      (node (ref F1) (pin 2)))
    (net (code 31) (name "Net-(R3-Pad1)")
      (node (ref R3) (pin 1))
      (node (ref U1) (pin 3)))
    (net (code 32) (name "Net-(U1-Pad12)")
      (node (ref U1) (pin 12)))
    (net (code 33) (name "Net-(U1-Pad19)")
      (node (ref U1) (pin 19)))
    (net (code 34) (name "Net-(U1-Pad18)")
      (node (ref U1) (pin 18)))
    (net (code 35) (name MOSI)
      (node (ref U1) (pin 10))
      (node (ref CON1) (pin 4)))
    (net (code 36) (name SCLK)
      (node (ref CON1) (pin 3))
      (node (ref U1) (pin 9)))
    (net (code 37) (name D9)
      (node (ref U1) (pin 29))
      (node (ref R8) (pin 2)))
    (net (code 38) (name "Net-(U1-Pad36)")
      (node (ref U1) (pin 36)))
    (net (code 39) (name D13)
      (node (ref U1) (pin 32))
      (node (ref D2) (pin 2)))
    (net (code 40) (name D10)
      (node (ref U1) (pin 30))
      (node (ref R9) (pin 2)))
    (net (code 41) (name D8)
      (node (ref U1) (pin 28))
      (node (ref R7) (pin 2)))
    (net (code 42) (name "Net-(U1-Pad26)")
      (node (ref U1) (pin 26)))
    (net (code 43) (name "Net-(U1-Pad22)")
      (node (ref U1) (pin 22)))
    (net (code 44) (name D1)
      (node (ref U1) (pin 21))
      (node (ref P2) (pin 2)))
    (net (code 45) (name D0)
      (node (ref U1) (pin 20))
      (node (ref P2) (pin 1)))
    (net (code 46) (name MISO)
      (node (ref CON1) (pin 1))
      (node (ref U1) (pin 11)))))