Component,Description,Part,References,Value,Footprint,Quantity Per PCB,Datasheet,Link
1,Unpolarized capacitor,C,C3,100n,C_0201,1,http://www.mouser.com/ds/2/40/cx5r-776519.pdf,http://www2.mouser.com/ProductDetail/AVX/02016D104MAT2A/?qs=sGAEpiMZZMs0AnBnWHyRQIJdIfr9DlvBB0r0IpTdqdY%3d
2,Unpolarized capacitor,C,C4,1uF,C_0201,1,http://www.mouser.com/ds/2/396/mlcc_all_e-541559.pdf,http://www2.mouser.com/ProductDetail/Taiyo-Yuden/JMK063BC6105MP-F/?qs=sGAEpiMZZMukHu%252bjC5l7Yd8IIWTQlTYBfR%252btPyB5oh8%3d
3,Unpolarized capacitor,C,C1 C2,22pf,C_0201,2,http://www.mouser.com/ds/2/212/KEM_C1030_CBR_SMD-1101233.pdf,http://www2.mouser.com/ProductDetail/KEMET/CBR02C220F9GAC/?qs=sGAEpiMZZMs0AnBnWHyRQOnEVIpFKt7paBTUBZL6Yd4%3d
4,CAPSENSE PAD CIRCLE MOD (on copper layer),CAPSENSE_CIRCLE,CAP1 CAP2 CAP3 CAP4 CAP5 CAP6,CAPSENSE_CIRCLE,CAPSENSE-CIRCLE-D10MM-MOD,6,,
5,"Connector, double row, 02x03",CONN_02X03,CON1,ICSP / SPI,Pin_Header_Straight_2x03,1,,
6,LED generic (green),LED,D2,LED,LED_0603,1,http://www2.mouser.com/ProductDetail/Vishay-Semiconductors/VLMTG1400-GS08/?qs=sGAEpiMZZMt82OzCyDsLFNViYRBuHA8ro4ZQxhcKA1A%3d,http://www.vishay.com/docs/83173/tlmb1100.pdf
7,LED generic (red),LED,D1,PWD,LED_0603,1,http://www2.mouser.com/ProductDetail/Vishay-Semiconductors/TLMS1000-GS08/?qs=sGAEpiMZZMseGfSY3csMkZF9sQhINPprLsgMXOsCHvU%3d,http://www.mouser.com/ds/2/427/tlmo1000-279842.pdf
8,"Fuse, generic",Fuse,F1,500mA,Fuse_SMD1206_Reflow,1,http://www.mouser.com/ds/2/54/fnsmf-777637.pdf,http://www2.mouser.com/ProductDetail/Bourns/MF-NSMF050-2/?qs=sGAEpiMZZMsZt0HrY5I79nE1ecj6bKLpEKeAEBXr4RQ%3d
9,"Connector, single row, 01x04",CONN_01X04,P2,CONN_01X04,Pin_Header_Straight_1x04,1,,
10,USB Type A connector,USB_A,P1,USB_A,USB_Micro-B_10103594-0001LF,1,http://www.mouser.com/ds/2/18/10103594-941365.pdf,http://www2.mouser.com/ProductDetail/FCI-Amphenol/10103594-0001LF/?qs=%2fha2pyFaduixodMtyZnVHYpuSvDHYP69xwFKkwcFAQdvCwOKvbXKbo36oHMi29v7jOV7rDuIK6%252bmTvBkK8wKzg%3d%3d
11,Resistor,R,R1,10K,R_0201,1,http://www2.mouser.com/ProductDetail/Panasonic/ERA-1ARW103C/?qs=sGAEpiMZZMukHu%252bjC5l7YbHSZY1REbYATii5KRYTORk%3d,http://www.mouser.com/ds/2/315/Panasonic_10102016_ERA-1018903.pdf
12,Resistor,R,R10 R11,1K,R_0201,2,http://www.mouser.com/ds/2/315/Panasonic_10102016_ERA-1018903.pdf,http://www2.mouser.com/ProductDetail/Panasonic/ERA-1ARW102C/?qs=sGAEpiMZZMukHu%252bjC5l7YbHSZY1REbYAdn%252b3pLbgRjM%3d
13,Resistor,R,R4 R5 R6 R7 R8 R9,1M,R_0201,6,http://industrial.panasonic.com/www-cgi/jvcr13pz.cgi?E+PZ+3+AOA0005+ERJS06J821V+7+WW,http://www2.mouser.com/ProductDetail/Panasonic/ERJ-U01F1004C/?qs=sGAEpiMZZMukHu%252bjC5l7YeDR1NYiKwxQZby5oKi743w%3d
14,Resistor,R,R2 R3,22,R_0201,2,http://www.mouser.com/ds/2/447/RC0201-559633.pdf,http://www2.mouser.com/ProductDetail/Yageo/RC0201FR-0722R1L/?qs=sGAEpiMZZMvdGkrng054t3t5StEK52iMYvOfmNIs%2fvQ%3d
15,"TQFP44, 16K Flash, 1.25K SRAM, 512B EEPROM, USB2.0",ATMEGA32U4-A,U1,ATMEGA32U4-A,TQFP-44_10x10mm_Pitch0.8mm,1,http://www.atmel.com/images/atmel-7766-8-bit-avr-atmega16u4-32u4_%20datasheet.pdf,http://www2.mouser.com/ProductDetail/Microchip-Technology-Atmel/ATMEGA32U4-AUR/?qs=sGAEpiMZZMvqv2n3s2xjsUbafDrAziEwaRX2NEvN7Rs%3d
16,"Four pin crystal (GND on pins 2 and 4), e.g. in SMD package",Crystal_GND24,Y1,16Mhz,Crystal_SMD_Abracon_ABM3B-4pin_5.0x3.2mm,1,http://www.mouser.com/ds/2/3/abm3b-39910.pdf,http://www2.mouser.com/ProductDetail/ABRACON/ABM3B-16000MHZ-B2-T/?qs=sGAEpiMZZMsBj6bBr9Q9aUe%252bp9Tek3UMr5iCdr9UWk0%3d
,,,,,,,,
,,,,,,,,
,,,,,,,,
,,,,,,,,
,,,,,,,,
Component Groups:,16,,,,,,,
Component Count:,29,,,,,,,
Fitted Components:,29,,,,,,,
Number of PCBs:,1,,,,,,,
Total components:,29,,,,,,,
Schematic Version:,r1,,,,,,,
Schematic Date:,2017-07-23,,,,,,,
BoM Date:,Thu 24 Aug 2017 03:10:04 PM CEST,,,,,,,
Schematic Source:,/home/fido/code/transcriba/pcb_files/pedal_transcriba_brd.sch,,,,,,,
KiCad Version:,Eeschema 4.0.5+dfsg1-4~bpo8+1,,,,,,,
